{
	"optimizationMetrics": {
		"facilityUtilization": {
			"fy18OMBtarget": 80.00,
			"fy16Planned": 47,
			"fy16Achieved": 57,
			"fy17Planned": 46,
			"fy18Planned": 60,
			"explanationForUnmetPlannedValue": ""
		},
		"energyMetering": {
			"fy18OMBtarget": 100.00,
			"fy16Planned": 47,
			"fy16Achieved": 47,
			"fy17Planned": 56,
			"fy18Planned": 86,
			"explanationForUnmetPlannedValue": ""
		},
		"pue": {
			"fy18OMBtarget": 1.50,
			"fy16Planned": 1.94,
			"fy16Achieved": 1.86,
			"fy17Planned": 1.85,
			"fy18Planned": 1.66,
			"explanationForUnmetPlannedValue": ""
		},
		"virtualization": {
			"fy18OMBtarget": 4.00,
			"fy16Planned": 4.7,
			"fy16Achieved": 4.7,
			"fy17Planned": 6.28,
			"fy18Planned": 6.54,
			"explanationForUnmetPlannedValue": ""
		},
		"tieredServerUtAutoMonitoring": {
			"fy18OMBtarget": 65.00,
			"fy16Planned": 11,
			"fy16Achieved": 4,
			"fy17Planned": 18.9,
			"fy18Planned": 23.3,
			"explanationForUnmetPlannedValue": "USDA will require additional time in order to validate that tiered data center server utilization monitoring is applied, in accordance with OMB direction."
		},
		"nontieredServerUtAutoMonitoring": {
			"fy18OMBtarget": 65,
			"fy16Planned": 5,
			"fy16Achieved": 0,
			"fy17Planned": 4.3,
			"fy18Planned": 5.9,
			"explanationForUnmetPlannedValue": "USDA will require additional time in order to validate that non-tiered data center server utilization monitoring is applied, in accordance with OMB direction."
		}
	},
	"tieredClosures": {
		"fy18OMBtarget": 6,
		"fy16Planned": 3,
		"fy16Achieved": 3,
		"fy17Planned": 1,
		"fy18Planned": 4,
		"explanationForUnmetPlannedValue": ""
	},
	"nontieredClosures": {
		"fy18OMBtarget": 1318,
		"fy16Planned": 2181,
		"fy16Achieved": 2181,
		"fy17Planned": 2,
		"fy18Planned": 6,
		"explanationForUnmetPlannedValue": ""
	},
	"costSavings": {
		"fy18OMBtarget": 23.62,
		"fy16Planned": 1.31,
		"fy16Achieved": 3.44,
		"fy17Planned": 7.41,
		"fy18Planned": 5.21,
		"costsOfClosures": "$2.99M",
		"costsOfOptimization": "$6.45M",
		"historicalCostSavings": "$21.63M"

	}
}